GRR
…
Let’s create a simple example with two variables from the diamonds data set. The cardinality of the cartesian product is 35 but we drop an observed combination to ensure that the combination is included in the noisy data.

data <- diamonds %>%
  select(cut, color) %>%
  mutate(across(everything(), as.character)) %>%
  filter(!(cut == "Fair" & color == "D")) %>%
  mutate(state = "Fake state")

attribs <- c("cut", "color", "state")

add_D_i() and create_D() are important functions for ensuring the missing combinations are included.

add_D_i(data, attribs = attribs)

# A tibble: 53,777 × 4
   cut       color state      D_i  
   <chr>     <chr> <chr>      <chr>
 1 Ideal     E     Fake state 016  
 2 Premium   E     Fake state 023  
 3 Good      E     Fake state 009  
 4 Premium   I     Fake state 027  
 5 Good      J     Fake state 014  
 6 Very Good J     Fake state 035  
 7 Very Good I     Fake state 034  
 8 Very Good H     Fake state 033  
 9 Fair      E     Fake state 002  
10 Very Good H     Fake state 033  
# ℹ 53,767 more rows

create_D(data)

 [1] "001" "002" "003" "004" "005" "006" "007" "008" "009" "010" "011" "012"
[13] "013" "014" "015" "016" "017" "018" "019" "020" "021" "022" "023" "024"
[25] "025" "026" "027" "028" "029" "030" "031" "032" "033" "034" "035"

Demonstrate the method with \(\epsilon = 1\) and \(\epsilon = 10\).

data %>%
  add_D_i(attribs = attribs) %>%
  add_opt_in(prob_opt_in = 1) %>%
  hist_grr(epsilon = 1, attribs = attribs)

# A tibble: 35 × 6
   D_i       n n_noisy cut   color state     
   <chr> <int>   <dbl> <chr> <chr> <chr>     
 1 001       0   -974. <NA>  <NA>  Fake state
 2 002     224    351. Fair  E     Fake state
 3 003     312    180. Fair  F     Fake state
 4 004     314   -760. Fair  G     Fake state
 5 005     303    158. Fair  H     Fake state
 6 006     175   2189. Fair  I     Fake state
 7 007     119   1141. Fair  J     Fake state
 8 008     662    394. Good  D     Fake state
 9 009     933    885. Good  E     Fake state
10 010     909   1248. Good  F     Fake state
# ℹ 25 more rows

data %>%
  add_D_i(attribs = attribs) %>%
  add_opt_in(prob_opt_in = 1) %>%
  hist_grr(epsilon = 10, attribs = attribs)

# A tibble: 35 × 6
   D_i       n n_noisy cut   color state     
   <chr> <int>   <dbl> <chr> <chr> <chr>     
 1 001       0  -0.438 <NA>  <NA>  Fake state
 2 002     224 224.    Fair  E     Fake state
 3 003     312 311.    Fair  F     Fake state
 4 004     314 312.    Fair  G     Fake state
 5 005     303 303.    Fair  H     Fake state
 6 006     175 175.    Fair  I     Fake state
 7 007     119 120.    Fair  J     Fake state
 8 008     662 663.    Good  D     Fake state
 9 009     933 932.    Good  E     Fake state
10 010     909 913.    Good  F     Fake state
# ℹ 25 more rows
