Synthesize Full ACS
…
presynth <- presynth(
  roadmap = roadmap,
  synth_spec = synth_spec,
  noise = noise, 
  constraints = constraints,
  replicates = replicates
)

synth1 <- synthesize(presynth)

synth1$synthetic_data

# A tibble: 89,149 × 15
   race         hispan statefip marst sex   hcovany empstat labforce   age educd
   <fct>        <chr>  <chr>    <chr> <chr> <chr>   <chr>   <chr>    <dbl> <dbl>
 1 Two major r… Not H… Florida  Marr… Fema… With h… Employ… Yes, in…    42    42
 2 White        Not H… Florida  Wido… Fema… With h… Not in… Yes, in…    47    25
 3 White        Not H… Florida  Marr… Male  With h… Employ… Yes, in…    45    25
 4 White        Not H… Florida  Marr… Male  With h… Not in… No, not…    71    41
 5 White        Not H… Pennsyl… Divo… Male  With h… Not in… No, not…    67    25
 6 White        Not H… Florida  Marr… Fema… With h… Not in… No, not…    70     3
 7 White        Puert… Florida  Neve… Fema… With h… Employ… Yes, in…    32    29
 8 White        Not H… Florida  Wido… Male  With h… Employ… Yes, in…    63    42
 9 White        Not H… Florida  Neve… Male  With h… Employ… Yes, in…    34    43
10 Black/Afric… Not H… Michigan Marr… Fema… With h… Not in… Yes, in…    66    25
# ℹ 89,139 more rows
# ℹ 5 more variables: ftotinc <dbl>, inctot <dbl>, incwage <dbl>,
#   incwelfr <dbl>, incresid <dbl>
…
