Synthetic ACS Evaluation
…
Disclosure Metrics

bind_cols(
  specs,
  discriminator_auc = results |>
    map_dfr("ldiveristy")
)

# A tibble: 60 × 13
   implicate opt_in white_multiplier   run id    description      ldiveristy_age
       <dbl> <fct>  <fct>            <dbl> <chr> <chr>                     <dbl>
 1         1 0.1    0.5                  1 001   Run: 1; Implica…              0
 2         1 0.1    1                    2 002   Run: 2; Implica…              0
 3         1 0.1    2                    3 003   Run: 3; Implica…              0
 4         1 0.5    0.5                  4 004   Run: 4; Implica…              0
 5         1 0.5    1                    5 005   Run: 5; Implica…              0
 6         1 0.5    2                    6 006   Run: 6; Implica…              0
 7         1 0.9    0.5                  7 007   Run: 7; Implica…              0
 8         1 0.9    1                    8 008   Run: 8; Implica…              0
 9         1 0.9    2                    9 009   Run: 9; Implica…              0
10         1 1      0.5                 10 010   Run: 10; Implic…              0
# ℹ 50 more rows
# ℹ 6 more variables: ldiveristy_educd <dbl>, ldiveristy_ftotinc <dbl>,
#   ldiveristy_inctot <dbl>, ldiveristy_incwage <dbl>,
#   ldiveristy_incwelfr <dbl>, ldiveristy_incresid <dbl>
…
